…
``` r
birthweight_df |>
  janitor::clean_names() |>
  drop_na() |>
  mutate(
    babysex = factor(babysex, labels = c("male", "female")
  ), 
   frace = factor(frace, labels = c("White", "Black", "Asian", "Puerto Rican", "Other")),
   mrace = factor(mrace, labels = c("White", "Black", "Asian", "Puerto Rican")
  )) 
```

    ## # A tibble: 4,342 x 20
    ##    babysex bhead blength   bwt delwt fincome frace gaweeks malform menarche
    ##    <fct>   <dbl>   <dbl> <dbl> <dbl>   <dbl> <fct>   <dbl>   <dbl>    <dbl>
    ##  1 female     34      51  3629   177      35 White    39.9       0       13
    ##  2 male       34      48  3062   156      65 Black    25.9       0       14
    ##  3 female     36      50  3345   148      85 White    39.9       0       12
    ##  4 male       34      52  3062   157      55 White    40         0       14
    ##  5 female     34      52  3374   156       5 White    41.6       0       13
    ##  6 male       33      52  3374   129      55 White    40.7       0       12
    ##  7 female     33      46  2523   126      96 Black    40.3       0       14
    ##  8 female     33      49  2778   140       5 White    37.4       0       12
    ##  9 male       36      52  3515   146      85 White    40.3       0       11
    ## 10 male       33      50  3459   169      75 Black    40.7       0       12
    ## # i 4,332 more rows
    ## # i 10 more variables: mheight <dbl>, momage <dbl>, mrace <fct>, parity <dbl>,
    ## #   pnumlbw <dbl>, pnumsga <dbl>, ppbmi <dbl>, ppwt <dbl>, smoken <dbl>,
    ## #   wtgain <dbl>
…
